<svg width="38" height="30" viewBox="0 0 38 30" version="1.1" xmlns="http://www.w3.org/2000/svg" xmlns:xlink="http://www.w3.org/1999/xlink">
<title>LHS_Arrow</title>
<desc>Created using Figma</desc>
<g id="Canvas" transform="translate(31469 36457)">
<g id="LHS_Arrow">
<g id="Vector 5">
<use xlink:href="#path0_stroke" transform="matrix(-1 1.22465e-16 -1.22465e-16 -1 -31454 -36428)" fill="#8B6E4A"/>
</g>
<g id="Vector 6">
<use xlink:href="#path1_stroke" transform="matrix(-1 1.22465e-16 -1.22465e-16 -1 -31431 -36442)" fill="#8B6E4A"/>
</g>
</g>
</g>
<defs>
<path id="path0_stroke" d="M 14 14L 14.495 14.495L 14.9899 14L 14.495 13.505L 14 14ZM -0.494975 0.494975L 13.505 14.495L 14.495 13.505L 0.494975 -0.494975L -0.494975 0.494975ZM 13.505 13.505L -0.494975 27.505L 0.494975 28.495L 14.495 14.495L 13.505 13.505Z"/>
<path id="path1_stroke" d="M 37 -0.7L 0 -0.7L 0 0.7L 37 0.7L 37 -0.7Z"/>
</defs>
</svg>
