<svg width="16" height="16" viewBox="0 0 16 16" version="1.1" xmlns="http://www.w3.org/2000/svg" xmlns:xlink="http://www.w3.org/1999/xlink">
<title>X</title>
<desc>Created using Figma</desc>
<g id="Canvas" transform="translate(31655 36450)">
<g id="X">
<g id="Vector">
<use xlink:href="#path0_stroke" transform="matrix(0.711406 -0.702782 0.711406 0.702782 -31654 -36434.5)" fill="#8B6E4A"/>
</g>
<g id="Vector">
<use xlink:href="#path1_stroke" transform="matrix(0.711107 0.703084 -0.711107 0.703084 -31654 -36449)" fill="#8B6E4A"/>
</g>
</g>
</g>
<defs>
<path id="path0_stroke" d="M 0 0.7L 20.381 0.7L 20.381 -0.7L 0 -0.7L 0 0.7Z"/>
<path id="path1_stroke" d="M 0 0.7L 20.381 0.7L 20.381 -0.7L 0 -0.7L 0 0.7Z"/>
</defs>
</svg>
